{
    "listeners": {
        "*:8080": {
            "pass": "routes"
        }
    },

    "routes": [
        {
            "action": {
                "share": "/www/data/static/"
            }
        }
    ]
}
